1479207574:File%3ATransparent.gif:246
1479207574:File:1x1.png:48
1479207574:File:Amanhecer_no_Hercules_--.jpg:39
1479207574:File://de.wikipedia.org:26
1479207574:File:007.The_Great_Flood.jpg:24
1479207574:File:Adm._John_Fisher.jpg:23
1479207574:File:Commons-logo.svg:19
1479207574:File:Ausflag_2000_a.svg:15
1479207574:File:Airmen_participate_in_Chile%E2%80%99s_Salitre_exercise_141015-Z-IJ251-260.jpg:15
1479207574:File:Bottles_recycling_bin.JPG:14
1479207584:L%C3%A9on_%E2%80%93_Der_Profi:1324
1479207584:Natalie_Portman:1015
1479207584:Politik:374
1479207584:Nadja_abd_el_Farrag:338
1479207584:Roddy_Piper:284
1479207584:Liste_christlicher_Konfessionen:222
1479207584:Oswald_von_Wolkenstein:220
1479207584:Paul_Simon:218
1479207584:Marine,_temps_d%E2%80%99orage:218
1479207584:Lynn_Anderson:199
1479207594:Category:Gay_actors:101
1479207594:Category:Gods_of_the_indigenous_peoples_of_North_America:93
1479207594:Category:Disambiguation_pages:87
1479207594:Category:Aztec_gods:57
1479207594:Category:Gujarati_language:54
1479207594:Category:Greek_academics:53
1479207594:Category:Brazilian_telenovela_actresses:48
1479207594:Category:Grammy_Award_winners:48
1479207594:Category:Imperial_Russian_Navy_admirals:47
1479207594:Category:Binghamton_Mets_players:43
1479207604:Israel:1623
1479207604:Ian_McShane:943
1479207604:Internet_police:838
1479207604:Jared_Fogle:807
1479207604:Information_theory:713
1479207604:Ill_Manors:657
1479207604:Jack_Reacher_(film):642
1479207604:Inside_Out_(2015_film):540
1479207604:Islamic_State_of_Iraq_and_the_Levant:448
1479207604:International_Standard_Book_Number:436
1479207614:Ronda_Rousey:3974
1479207614:Roddy_Piper:3202
1479207614:Ronald_Fisher:647
1479207614:Sean_Parker:631
1479207614:Rosamund_Pike:465
1479207614:Rokka:_Braves_of_the_Six_Flowers:341
1479207614:Samantha_Lewthwaite:266
1479207614:Scarlett_Johansson:248
1479207614:Ruby_Rose:243
1479207614:Russia:239
1479207624:Vacation_(2015_film):928
1479207624:Unicode:715
1479207624:United_States_presidential_election,_2016:359
1479207624:United_Kingdom:345
1479207624:VfL_Wolfsburg:284
1479207624:Under_the_Dome_(TV_series):226
1479207624:United_States_gubernatorial_elections,_2018:218
1479207624:User:NationalRegisterBot/AllNRHPPages/C:194
1479207624:User:Maxie1hoi:187
1479207624:User:GoogleAnalitycsRoman/google-api:181
1479207634:es:787268
1479207634:Wikipedia:Portada:12274
1479207634:et:2087
1479207634:Alem%C3%A1n/Clases_programadas_para_el_aprendizaje_del_Alem%C3%A1n/_Geplante_Unterrichtsstunden_f%C3%BCr%C2%B4s_Erlernen_deutscher_Sprache/_Alemana_ikasteko_eskola_antolatuak/Nivel_b%C3%A1sico_A1_oinarrizko_maila_/G:2056
1479207634:Alem%C3%A1n/Clases_programadas_para_el_aprendizaje_del_Alem%C3%A1n/_Geplante_Unterrichtsstunden_f%C3%BCr%C2%B4s_Erlernen_deutscher_Sprache/_Alemana_ikasteko_eskola_antolatuak/Nivel_b%C3%A1sico_A2_oinarrizko_maila_/G:1268
1479207634:Warner_Bros._Records:1103
1479207634:index.html:529
1479207634:Portada:239
1479207634:Tabla_peri%C3%B3dica_de_los_elementos:227
1479207634:Voleibol:215
1479207645:id:54518
1479207645:is:1113
1479207645:io:608
1479207645:ig:415
1479207645:index.html:293
1479207645:Salat:258
1479207645:Mekanisme_Impeachment_%26_Hukum_Acara_Mahkamah_Konstitusi/ANALISIS_PROSES_IMPEACHMENT_MENURUT_UUD_NEGARA_REPUBLIK_INDONESIA_TAHUN_1945_(SETELAH_PERUBAHAN)/Alasan-alasan_Impeachment_Menurut_UUD_Sete:230
1479207645:incubator:207
1479207645:Mekanisme_Impeachment_%26_Hukum_Acara_Mahkamah_Konstitusi/ANALISIS_PROSES_IMPEACHMENT_MENURUT_UUD_NEGARA_REPUBLIK_INDONESIA_TAHUN_1945_(SETELAH_PERUBAHAN)/Proses_Impeachment_di_MK_/Proses_beracara:184
1479207645:Beatrice_Borromeo:158
1479207655:meta:11721
1479207655:Special:HideBanners:11279
1479207655:mg:975
1479207655:ms:841
1479207655:lv:824
1479207655:IRCserver-status:480
1479207655:(11398)_1998_YP11:345
1479207655:Templat:Rancangan:270
1479207655:ml:231
1479207655:Adelia_Artamevia:185
1479207665:%D0%9A%D0%B0%D1%82%D0%B5%D0%B3%D0%BE%D1%80%D0%B8%D1%8F:%D0%90%D0%BA%D1%82%D1%91%D1%80%D1%8B_%D0%A4%D1%80%D0%B0%D0%BD%D1%86%D0%B8%D0%B8:218
1479207665:%D0%9B%D1%8E%D0%B4%D0%B8_%D0%98%D0%BA%D1%81_(%D1%81%D0%B5%D1%80%D0%B8%D1%8F_%D1%84%D0%B8%D0%BB%D1%8C%D0%BC%D0%BE%D0%B2):127
1479207665:%D0%9B%D1%8E%D0%B4%D0%B8_%D0%98%D0%BA%D1%81:87
1479207665:%D0%9B%D1%8E%D0%B4%D0%B8_%D0%98%D0%BA%D1%81_(%D1%84%D0%B8%D0%BB%D1%8C%D0%BC):83
1479207665:%D0%9C%D0%B0%D1%80%D0%B3%D0%B5%D0%BB%D0%BE%D0%B2,_%D0%92%D0%B0%D1%81%D0%B8%D0%BB%D0%B8%D0%B9_%D0%A4%D0%B8%D0%BB%D0%B8%D0%BF%D0%BF%D0%BE%D0%B2%D0%B8%D1%87:76
1479207665:%D0%9D%D0%BE%D0%B1%D0%B5%D0%BB%D0%B5%D0%B2%D1%81%D0%BA%D0%B0%D1%8F_%D0%BF%D1%80%D0%B5%D0%BC%D0%B8%D1%8F:75
1479207665:%D0%9A%D0%B0%D1%82%D0%B5%D0%B3%D0%BE%D1%80%D0%B8%D1%8F:%D0%A0%D0%B5%D0%B6%D0%B8%D1%81%D1%81%D1%91%D1%80%D1%8B_%D0%BC%D1%83%D0%BB%D1%8C%D1%82%D0%B8%D0%BF%D0%BB%D0%B8%D0%BA%D0%B0%D1%86%D0%B8%D0%B8_%D0%A1%D0%A1%D0%A1%D0%A0:69
1479207665:%D0%9B%D1%8E%D0%B4%D0%B8_%D0%98%D0%BA%D1%81:_%D0%90%D0%BF%D0%BE%D0%BA%D0%B0%D0%BB%D0%B8%D0%BF%D1%81%D0%B8%D1%81:67
1479207665:%D0%9A%D1%80%D1%83%D0%B7,_%D0%A2%D0%BE%D0%BC:65
1479207665:%D0%9A%D0%B0%D1%82%D0%B5%D0%B3%D0%BE%D1%80%D0%B8%D1%8F::64
1479207675:Q1568760:61419
1479207675:war:1876
1479207675:Special:HideBanners:1211
1479207675:MediaWiki:948
1479207675:index.php:541
1479207675:Download:196
1479207675:Mediawiki:125
1479207675:Localization:121
1479207675:Thread:Project:Support_desk/index.php:105
1479207675:Thread:Extension_talk:Phpbb_Single_Sign-On/index.php:75
1479207685:Special:%E9%93%BE%E5%87%BA%E6%9B%B4%E6%94%B9/%E6%9C%AC%E7%A7%91%E5%AD%A6%E5%8E%86%E3%80%90%E5%BF%AB%E9%80%9F%E5%8A%9E%E7%90%86_QQ2225332070_%E6%B7%98%E5%AE%9D%E4%BA%A4%E6%98%93%E3%80%912015%E5%B9%B403%E6%9C%8810%E6%97%A5%E2%98%855925952015%E5%B9%B403%E6%9C%8810%E6%97%A5%E2%98%85pr88pg:2
1479207685:Special:%E9%93%BE%E5%87%BA%E6%9B%B4%E6%94%B9/%E6%AD%A6%E5%B9%B3%E5%8E%BF%E8%BF%87%E9%87%8F%E6%9C%8D%E7%94%A8%E5%82%AC%E6%83%85%E8%8D%AF%EF%B8%BC%E3%80%90%E5%8A%A0Q:332079286%E5%85%A8%E5%9B%BD%E8%B4%A7%E5%88%B0%E4%BB%98%E6%AC%BE%E3%80%91%E8%BF%87%E9%87%8F%E6%9C%8D%E7%94%A8%E5%90%AC%E8%AF%9D%E5%96%B7%E9%9B%BE%E6%80%8E%E4%B9%88%E5%8A%9E:2
1479207685:Special:%E9%93%BE%E5%87%BA%E6%9B%B4%E6%94%B9/%E5%B9%BF%E7%9B%8A%E5%B9%B3%E5%8F%B0%E4%BF%A1%E8%AA%89%E6%80%8E%E4%B9%88%E6%A0%B7%E3%80%90%E6%80%BB%E4%BB%A3QQ35767030%E3%80%91350%E8%A3%85%E4%BF%AE%E6%B7%98%E5%AE%9D%E5%85%85%E5%80%BC%E5%A4%A9%E7%8C%AB%E5%88%86%E9%94%80%E8%85%BE%E8%AE%AF%E6%B8%B8%E6%88%8F16%E5%B8%AE%E5%8D%A1%E5%BD%93%E7%BD%91%E7%A6%8F%E6%B1%87xm%E9%93%81%E6%B1%87%E5%88%B717:2
1479207685:Special:%E9%93%BE%E5%87%BA%E6%9B%B4%E6%94%B9/%E6%B0%B4%E5%BA%93%E5%A6%82%E4%BD%95%E9%92%93%E5%A4%A7%E9%B1%BC%EF%BF%A0%E3%80%90QQ:571976079%E7%94%B5%E8%AF%9Dl392-8823696%E7%99%BE%E5%B9%B4%E4%BF%A1%E8%AA%89%E3%80%91%E9%92%93%E9%B1%BC%E6%8A%80%E5%B7%A7%E6%95%99%E7%A8%8B:2
1479207685:Special:%E9%93%BE%E5%87%BA%E6%9B%B4%E6%94%B9/%E6%94%80%E6%9E%9D%E8%8A%B1%E5%93%AA%E9%87%8C%E6%9C%89%E6%98%8F%E8%BF%B7%E8%8D%AF%E6%B0%B4%E2%97%8F%E3%80%90%E5%8A%A0Q:1952712274%E8%B4%A7%E5%88%B0%E4%BB%98%E6%AC%BE%E3%80%91%E6%80%8E%E4%B9%88%E4%B9%B0%E5%88%B0%E8%BF%B7%E5%B9%BB%E8%8D%AF%E6%B0%B4:2
1479207685:Special:%E9%93%BE%E5%87%BA%E6%9B%B4%E6%94%B9/%E5%BF%AB%E9%80%9F%E5%8A%9E%E7%90%86%E5%81%87%E4%BC%9A%E8%AE%A1%E5%B8%88%E8%AF%81%E3%80%90%E5%BF%AB%E9%80%9F%E5%8A%9E%E7%90%86_QQ2225332070_%E6%B7%98%E5%AE%9D%E4%BA%A4%E6%98%93%E3%80%912015%E5%B9%B403%E6%9C%8804%E6%97%A5%E2%98%859554262015%E5%B9%B403%E6%9C%8804%E6%97%A5%E2%98%85955426:2
1479207685:Special:%E9%93%BE%E5%87%BA%E6%9B%B4%E6%94%B9/%E6%A1%A6%E7%94%B8%E5%93%AA%E9%87%8C%E4%B9%B0%E6%89%93%E9%B8%9F%E6%9E%AA%E7%94%B5%E8%AF%9D:15221686928_QQ:85271186%E3%80%90%E8%B4%A7%E5%88%B0%E4%BB%98%E6%AC%BE%E3%80%91%E9%98%9C%E9%98%B3%E5%93%AA%E9%87%8C%E5%8D%96%E6%89%93%E9%B8%9F%E6%9E%AA:2
1479207685:Special:%E9%93%BE%E5%87%BA%E6%9B%B4%E6%94%B9/%E6%B5%8E%E5%8D%97%E5%B8%82%E9%95%BF%E6%B8%85%E5%8C%BA%E7%A7%98%E9%B2%81%E7%8E%9B%E5%8D%A1%E8%83%B6%E5%9B%8A%E4%BB%B7%E6%A0%BC%E2%97%86%E5%8A%A0Q:410374709%E5%A5%B3%E5%82%AC%E6%83%85koufu:2
1479207685:Special:%E9%93%BE%E5%87%BA%E6%9B%B4%E6%94%B9/%E7%99%BE%E5%88%A9%E5%AE%AB%E5%A8%B1%E4%B9%90%E5%9F%8E%E7%99%BE%E5%AE%B6%E4%B9%90XI2UIX%E3%80%90362.COM%E3%80%91362%E5%A8%B1%E4%B9%90%E5%9F%8E:2
1479207685:Special:%E9%93%BE%E5%87%BA%E6%9B%B4%E6%94%B9/%E6%A1%82%E9%98%B3%E5%8E%BF%E6%80%8E%E6%A0%B7%E8%B4%AD%E4%B9%B0%E4%B8%89%E5%94%91%E4%BB%91%E3%80%90%E5%8A%A0Q:406168395%E5%96%B7%E9%9B%BE%E5%9E%8B%E8%BF%B7%E6%99%95%E8%8D%AF:2
